<log>
 <error level="warning" id="warn_doc_tparam_not_found" file="H:\Vlad\[Sandbox]\Graphics\Graphics\eigen\Eigen/src/Core/DenseCoeffsBase.h" line="25" col="13" msg="template parameter &apos;#ReadOnlyAccessors&apos; not found in the template declaration" />
 <error level="warning" id="warn_doc_tparam_not_found" file="H:\Vlad\[Sandbox]\Graphics\Graphics\eigen\Eigen/src/Core/DenseCoeffsBase.h" line="265" col="13" msg="template parameter &apos;#WriteAccessors&apos; not found in the template declaration" />
 <error level="warning" id="warn_doc_tparam_not_found" file="H:\Vlad\[Sandbox]\Graphics\Graphics\eigen\Eigen/src/Core/DenseCoeffsBase.h" line="557" col="13" msg="template parameter &apos;#DirectAccessors&apos; not found in the template declaration" />
 <error level="warning" id="warn_doc_tparam_not_found" file="H:\Vlad\[Sandbox]\Graphics\Graphics\eigen\Eigen/src/Core/DenseCoeffsBase.h" line="627" col="13" msg="template parameter &apos;#DirectWriteAccessors&apos; not found in the template declaration" />
 <error level="warning" id="warn_doc_param_not_found" file="H:\Vlad\[Sandbox]\Graphics\Graphics\eigen\Eigen/src/Geometry/RotationBase.h" line="167" col="12" msg="parameter &apos;Scalar&apos; not found in the function declaration" />
 <error level="warning" id="warn_doc_param_not_found" file="H:\Vlad\[Sandbox]\Graphics\Graphics\eigen\Eigen/src/Geometry/RotationBase.h" line="168" col="12" msg="parameter &apos;Dim&apos; not found in the function declaration" />
 <error level="error" id="err_pp_file_not_found" file="H:\Vlad\[Sandbox]\Graphics\Graphics\Fovis\LibFovis/missing.h" line="6" col="10" msg="&apos; time.h &apos; file not found" />
 <error level="warning" id="warn_using_directive_in_header" file="C:\Program Files (x86)\Microsoft Visual Studio 12.0\VC\atlmfc\include\atlcomcli.h" line="3459" col="17" msg="using namespace directive in global context in header" />
 <error level="warning" id="warn_using_directive_in_header" file="C:\Program Files (x86)\Microsoft Visual Studio 12.0\VC\atlmfc\include\atlbase.h" line="7041" col="17" msg="using namespace directive in global context in header" />
 <error level="warning" id="warn_cxx98_compat_no_newline_eof" file="H:\Vlad\[Sandbox]\Graphics\Graphics\SmartScan\pch.cpp" line="1" col="17" msg="C++98 requires newline at end of file" />
</log>