<log>
 <error level="warning" id="warn_missing_variable_declarations" file="H:\Vlad\[Sandbox]\Graphics\Graphics\AntTweakBar\src\TwDirect3D9.cpp" line="24" col="13" msg="no previous extern declaration for non-static variable &apos;g_ErrCantLoadD3D9&apos;" />
 <error level="warning" id="warn_missing_variable_declarations" file="H:\Vlad\[Sandbox]\Graphics\Graphics\AntTweakBar\src\TwDirect3D9.cpp" line="25" col="13" msg="no previous extern declaration for non-static variable &apos;g_ErrCantUnloadD3D9&apos;" />
 <error level="warning" id="ext_token_used" file="H:\Vlad\[Sandbox]\Graphics\Graphics\AntTweakBar\src\TwDirect3D9.cpp" line="36" col="24" msg="extension used" />
 <error level="warning" id="warn_old_style_cast" file="H:\Vlad\[Sandbox]\Graphics\Graphics\AntTweakBar\src\TwDirect3D9.cpp" line="36" col="24" msg="use of old-style cast" />
 <error level="warning" id="warn_old_style_cast" file="H:\Vlad\[Sandbox]\Graphics\Graphics\AntTweakBar\src\TwDirect3D9.cpp" line="36" col="24" msg="use of old-style cast" />
 <error level="warning" id="warn_impcast_integer_sign" file="H:\Vlad\[Sandbox]\Graphics\Graphics\AntTweakBar\src\TwDirect3D9.cpp" line="40" col="41" msg="implicit conversion changes signedness: &apos;const int&apos; to &apos;UINT&apos; (aka &apos;unsigned int&apos;)" />
 <error level="warning" id="warn_impcast_integer_sign" file="H:\Vlad\[Sandbox]\Graphics\Graphics\AntTweakBar\src\TwDirect3D9.cpp" line="40" col="60" msg="implicit conversion changes signedness: &apos;const int&apos; to &apos;UINT&apos; (aka &apos;unsigned int&apos;)" />
 <error level="warning" id="warn_impcast_integer_sign" file="H:\Vlad\[Sandbox]\Graphics\Graphics\AntTweakBar\src\TwDirect3D9.cpp" line="44" col="41" msg="implicit conversion changes signedness: &apos;const int&apos; to &apos;UINT&apos; (aka &apos;unsigned int&apos;)" />
 <error level="warning" id="warn_impcast_integer_sign" file="H:\Vlad\[Sandbox]\Graphics\Graphics\AntTweakBar\src\TwDirect3D9.cpp" line="44" col="60" msg="implicit conversion changes signedness: &apos;const int&apos; to &apos;UINT&apos; (aka &apos;unsigned int&apos;)" />
 <error level="warning" id="warn_old_style_cast" file="H:\Vlad\[Sandbox]\Graphics\Graphics\AntTweakBar\src\TwDirect3D9.cpp" line="45" col="9" msg="use of old-style cast" />
 <error level="warning" id="warn_old_style_cast" file="H:\Vlad\[Sandbox]\Graphics\Graphics\AntTweakBar\src\TwDirect3D9.cpp" line="50" col="9" msg="use of old-style cast" />
 <error level="warning" id="warn_old_style_cast" file="H:\Vlad\[Sandbox]\Graphics\Graphics\AntTweakBar\src\TwDirect3D9.cpp" line="54" col="33" msg="use of old-style cast" />
 <error level="warning" id="ext_delete_void_ptr_operand" file="H:\Vlad\[Sandbox]\Graphics\Graphics\AntTweakBar\src\TwDirect3D9.cpp" line="155" col="5" msg="cannot delete expression with pointer-to-&apos;void&apos; type &apos;void *&apos;" />
 <error level="warning" id="warn_impcast_integer_sign" file="H:\Vlad\[Sandbox]\Graphics\Graphics\AntTweakBar\src\TwDirect3D9.cpp" line="182" col="20" msg="implicit conversion changes signedness: &apos;int&apos; to &apos;DWORD&apos; (aka &apos;unsigned long&apos;)" />
 <error level="warning" id="warn_impcast_integer_sign" file="H:\Vlad\[Sandbox]\Graphics\Graphics\AntTweakBar\src\TwDirect3D9.cpp" line="183" col="21" msg="implicit conversion changes signedness: &apos;int&apos; to &apos;DWORD&apos; (aka &apos;unsigned long&apos;)" />
 <error level="warning" id="warn_old_style_cast" file="H:\Vlad\[Sandbox]\Graphics\Graphics\AntTweakBar\src\TwDirect3D9.cpp" line="284" col="21" msg="use of old-style cast" />
 <error level="warning" id="warn_old_style_cast" file="H:\Vlad\[Sandbox]\Graphics\Graphics\AntTweakBar\src\TwDirect3D9.cpp" line="285" col="21" msg="use of old-style cast" />
 <error level="warning" id="warn_old_style_cast" file="H:\Vlad\[Sandbox]\Graphics\Graphics\AntTweakBar\src\TwDirect3D9.cpp" line="290" col="21" msg="use of old-style cast" />
 <error level="warning" id="warn_old_style_cast" file="H:\Vlad\[Sandbox]\Graphics\Graphics\AntTweakBar\src\TwDirect3D9.cpp" line="291" col="21" msg="use of old-style cast" />
 <error level="warning" id="warn_old_style_cast" file="H:\Vlad\[Sandbox]\Graphics\Graphics\AntTweakBar\src\TwDirect3D9.cpp" line="329" col="21" msg="use of old-style cast" />
 <error level="warning" id="warn_old_style_cast" file="H:\Vlad\[Sandbox]\Graphics\Graphics\AntTweakBar\src\TwDirect3D9.cpp" line="330" col="21" msg="use of old-style cast" />
 <error level="warning" id="warn_old_style_cast" file="H:\Vlad\[Sandbox]\Graphics\Graphics\AntTweakBar\src\TwDirect3D9.cpp" line="335" col="21" msg="use of old-style cast" />
 <error level="warning" id="warn_old_style_cast" file="H:\Vlad\[Sandbox]\Graphics\Graphics\AntTweakBar\src\TwDirect3D9.cpp" line="336" col="21" msg="use of old-style cast" />
 <error level="warning" id="warn_old_style_cast" file="H:\Vlad\[Sandbox]\Graphics\Graphics\AntTweakBar\src\TwDirect3D9.cpp" line="341" col="21" msg="use of old-style cast" />
 <error level="warning" id="warn_old_style_cast" file="H:\Vlad\[Sandbox]\Graphics\Graphics\AntTweakBar\src\TwDirect3D9.cpp" line="342" col="21" msg="use of old-style cast" />
 <error level="warning" id="warn_old_style_cast" file="H:\Vlad\[Sandbox]\Graphics\Graphics\AntTweakBar\src\TwDirect3D9.cpp" line="347" col="21" msg="use of old-style cast" />
 <error level="warning" id="warn_old_style_cast" file="H:\Vlad\[Sandbox]\Graphics\Graphics\AntTweakBar\src\TwDirect3D9.cpp" line="348" col="21" msg="use of old-style cast" />
 <error level="warning" id="warn_old_style_cast" file="H:\Vlad\[Sandbox]\Graphics\Graphics\AntTweakBar\src\TwDirect3D9.cpp" line="410" col="15" msg="use of old-style cast" />
 <error level="warning" id="warn_old_style_cast" file="H:\Vlad\[Sandbox]\Graphics\Graphics\AntTweakBar\src\TwDirect3D9.cpp" line="411" col="16" msg="use of old-style cast" />
 <error level="warning" id="warn_old_style_cast" file="H:\Vlad\[Sandbox]\Graphics\Graphics\AntTweakBar\src\TwDirect3D9.cpp" line="422" col="28" msg="use of old-style cast" />
 <error level="warning" id="warn_old_style_cast" file="H:\Vlad\[Sandbox]\Graphics\Graphics\AntTweakBar\src\TwDirect3D9.cpp" line="423" col="28" msg="use of old-style cast" />
 <error level="warning" id="warn_old_style_cast" file="H:\Vlad\[Sandbox]\Graphics\Graphics\AntTweakBar\src\TwDirect3D9.cpp" line="428" col="28" msg="use of old-style cast" />
 <error level="warning" id="warn_old_style_cast" file="H:\Vlad\[Sandbox]\Graphics\Graphics\AntTweakBar\src\TwDirect3D9.cpp" line="429" col="28" msg="use of old-style cast" />
 <error level="warning" id="warn_old_style_cast" file="H:\Vlad\[Sandbox]\Graphics\Graphics\AntTweakBar\src\TwDirect3D9.cpp" line="434" col="28" msg="use of old-style cast" />
 <error level="warning" id="warn_old_style_cast" file="H:\Vlad\[Sandbox]\Graphics\Graphics\AntTweakBar\src\TwDirect3D9.cpp" line="435" col="28" msg="use of old-style cast" />
 <error level="warning" id="warn_old_style_cast" file="H:\Vlad\[Sandbox]\Graphics\Graphics\AntTweakBar\src\TwDirect3D9.cpp" line="440" col="28" msg="use of old-style cast" />
 <error level="warning" id="warn_old_style_cast" file="H:\Vlad\[Sandbox]\Graphics\Graphics\AntTweakBar\src\TwDirect3D9.cpp" line="441" col="28" msg="use of old-style cast" />
 <error level="warning" id="warn_old_style_cast" file="H:\Vlad\[Sandbox]\Graphics\Graphics\AntTweakBar\src\TwDirect3D9.cpp" line="446" col="28" msg="use of old-style cast" />
 <error level="warning" id="warn_old_style_cast" file="H:\Vlad\[Sandbox]\Graphics\Graphics\AntTweakBar\src\TwDirect3D9.cpp" line="447" col="28" msg="use of old-style cast" />
 <error level="warning" id="warn_old_style_cast" file="H:\Vlad\[Sandbox]\Graphics\Graphics\AntTweakBar\src\TwDirect3D9.cpp" line="452" col="28" msg="use of old-style cast" />
 <error level="warning" id="warn_old_style_cast" file="H:\Vlad\[Sandbox]\Graphics\Graphics\AntTweakBar\src\TwDirect3D9.cpp" line="453" col="28" msg="use of old-style cast" />
 <error level="warning" id="warn_old_style_cast" file="H:\Vlad\[Sandbox]\Graphics\Graphics\AntTweakBar\src\TwDirect3D9.cpp" line="468" col="30" msg="use of old-style cast" />
 <error level="warning" id="warn_old_style_cast" file="H:\Vlad\[Sandbox]\Graphics\Graphics\AntTweakBar\src\TwDirect3D9.cpp" line="471" col="30" msg="use of old-style cast" />
 <error level="warning" id="warn_old_style_cast" file="H:\Vlad\[Sandbox]\Graphics\Graphics\AntTweakBar\src\TwDirect3D9.cpp" line="472" col="30" msg="use of old-style cast" />
 <error level="warning" id="warn_old_style_cast" file="H:\Vlad\[Sandbox]\Graphics\Graphics\AntTweakBar\src\TwDirect3D9.cpp" line="476" col="30" msg="use of old-style cast" />
 <error level="warning" id="warn_old_style_cast" file="H:\Vlad\[Sandbox]\Graphics\Graphics\AntTweakBar\src\TwDirect3D9.cpp" line="479" col="30" msg="use of old-style cast" />
 <error level="warning" id="warn_old_style_cast" file="H:\Vlad\[Sandbox]\Graphics\Graphics\AntTweakBar\src\TwDirect3D9.cpp" line="480" col="30" msg="use of old-style cast" />
 <error level="warning" id="warn_old_style_cast" file="H:\Vlad\[Sandbox]\Graphics\Graphics\AntTweakBar\src\TwDirect3D9.cpp" line="483" col="30" msg="use of old-style cast" />
 <error level="warning" id="warn_old_style_cast" file="H:\Vlad\[Sandbox]\Graphics\Graphics\AntTweakBar\src\TwDirect3D9.cpp" line="484" col="30" msg="use of old-style cast" />
 <error level="warning" id="warn_old_style_cast" file="H:\Vlad\[Sandbox]\Graphics\Graphics\AntTweakBar\src\TwDirect3D9.cpp" line="488" col="30" msg="use of old-style cast" />
 <error level="warning" id="warn_old_style_cast" file="H:\Vlad\[Sandbox]\Graphics\Graphics\AntTweakBar\src\TwDirect3D9.cpp" line="502" col="15" msg="use of old-style cast" />
 <error level="warning" id="warn_old_style_cast" file="H:\Vlad\[Sandbox]\Graphics\Graphics\AntTweakBar\src\TwDirect3D9.cpp" line="503" col="15" msg="use of old-style cast" />
 <error level="warning" id="warn_old_style_cast" file="H:\Vlad\[Sandbox]\Graphics\Graphics\AntTweakBar\src\TwDirect3D9.cpp" line="506" col="14" msg="use of old-style cast" />
 <error level="warning" id="warn_old_style_cast" file="H:\Vlad\[Sandbox]\Graphics\Graphics\AntTweakBar\src\TwDirect3D9.cpp" line="507" col="14" msg="use of old-style cast" />
 <error level="warning" id="warn_impcast_integer_sign" file="H:\Vlad\[Sandbox]\Graphics\Graphics\AntTweakBar\src\TwDirect3D9.cpp" line="513" col="32" msg="implicit conversion changes signedness: &apos;int&apos; to &apos;size_type&apos; (aka &apos;unsigned int&apos;)" />
 <error level="warning" id="warn_impcast_integer_sign" file="H:\Vlad\[Sandbox]\Graphics\Graphics\AntTweakBar\src\TwDirect3D9.cpp" line="514" col="32" msg="implicit conversion changes signedness: &apos;int&apos; to &apos;size_type&apos; (aka &apos;unsigned int&apos;)" />
 <error level="warning" id="warn_impcast_integer_sign" file="H:\Vlad\[Sandbox]\Graphics\Graphics\AntTweakBar\src\TwDirect3D9.cpp" line="516" col="36" msg="implicit conversion changes signedness: &apos;int&apos; to &apos;size_type&apos; (aka &apos;unsigned int&apos;)" />
 <error level="warning" id="warn_impcast_integer_sign" file="H:\Vlad\[Sandbox]\Graphics\Graphics\AntTweakBar\src\TwDirect3D9.cpp" line="522" col="57" msg="implicit conversion changes signedness: &apos;int&apos; to &apos;UINT&apos; (aka &apos;unsigned int&apos;)" />
 <error level="warning" id="warn_impcast_integer_sign" file="H:\Vlad\[Sandbox]\Graphics\Graphics\AntTweakBar\src\TwDirect3D9.cpp" line="526" col="32" msg="implicit conversion changes signedness: &apos;int&apos; to &apos;size_type&apos; (aka &apos;unsigned int&apos;)" />
 <error level="warning" id="warn_impcast_integer_sign" file="H:\Vlad\[Sandbox]\Graphics\Graphics\AntTweakBar\src\TwDirect3D9.cpp" line="527" col="32" msg="implicit conversion changes signedness: &apos;int&apos; to &apos;size_type&apos; (aka &apos;unsigned int&apos;)" />
 <error level="warning" id="warn_impcast_integer_sign" file="H:\Vlad\[Sandbox]\Graphics\Graphics\AntTweakBar\src\TwDirect3D9.cpp" line="535" col="34" msg="implicit conversion changes signedness: &apos;int&apos; to &apos;size_type&apos; (aka &apos;unsigned int&apos;)" />
 <error level="warning" id="warn_impcast_integer_sign" file="H:\Vlad\[Sandbox]\Graphics\Graphics\AntTweakBar\src\TwDirect3D9.cpp" line="536" col="34" msg="implicit conversion changes signedness: &apos;int&apos; to &apos;size_type&apos; (aka &apos;unsigned int&apos;)" />
 <error level="warning" id="warn_impcast_integer_sign" file="H:\Vlad\[Sandbox]\Graphics\Graphics\AntTweakBar\src\TwDirect3D9.cpp" line="540" col="38" msg="implicit conversion changes signedness: &apos;int&apos; to &apos;size_type&apos; (aka &apos;unsigned int&apos;)" />
 <error level="warning" id="warn_impcast_integer_sign" file="H:\Vlad\[Sandbox]\Graphics\Graphics\AntTweakBar\src\TwDirect3D9.cpp" line="546" col="57" msg="implicit conversion changes signedness: &apos;int&apos; to &apos;UINT&apos; (aka &apos;unsigned int&apos;)" />
 <error level="warning" id="warn_impcast_integer_sign" file="H:\Vlad\[Sandbox]\Graphics\Graphics\AntTweakBar\src\TwDirect3D9.cpp" line="550" col="34" msg="implicit conversion changes signedness: &apos;int&apos; to &apos;size_type&apos; (aka &apos;unsigned int&apos;)" />
 <error level="warning" id="warn_impcast_integer_sign" file="H:\Vlad\[Sandbox]\Graphics\Graphics\AntTweakBar\src\TwDirect3D9.cpp" line="551" col="34" msg="implicit conversion changes signedness: &apos;int&apos; to &apos;size_type&apos; (aka &apos;unsigned int&apos;)" />
 <error level="warning" id="warn_impcast_integer_sign" file="H:\Vlad\[Sandbox]\Graphics\Graphics\AntTweakBar\src\TwDirect3D9.cpp" line="563" col="16" msg="implicit conversion changes signedness: &apos;int&apos; to &apos;DWORD&apos; (aka &apos;unsigned long&apos;)" />
 <error level="warning" id="warn_impcast_integer_sign" file="H:\Vlad\[Sandbox]\Graphics\Graphics\AntTweakBar\src\TwDirect3D9.cpp" line="564" col="16" msg="implicit conversion changes signedness: &apos;int&apos; to &apos;DWORD&apos; (aka &apos;unsigned long&apos;)" />
 <error level="warning" id="warn_impcast_integer_sign" file="H:\Vlad\[Sandbox]\Graphics\Graphics\AntTweakBar\src\TwDirect3D9.cpp" line="565" col="20" msg="implicit conversion changes signedness: &apos;int&apos; to &apos;DWORD&apos; (aka &apos;unsigned long&apos;)" />
 <error level="warning" id="warn_impcast_integer_sign" file="H:\Vlad\[Sandbox]\Graphics\Graphics\AntTweakBar\src\TwDirect3D9.cpp" line="566" col="21" msg="implicit conversion changes signedness: &apos;int&apos; to &apos;DWORD&apos; (aka &apos;unsigned long&apos;)" />
 <error level="warning" id="warn_old_style_cast" file="H:\Vlad\[Sandbox]\Graphics\Graphics\AntTweakBar\src\TwDirect3D9.cpp" line="620" col="9" msg="use of old-style cast" />
 <error level="warning" id="warn_impcast_integer_sign" file="H:\Vlad\[Sandbox]\Graphics\Graphics\AntTweakBar\src\TwDirect3D9.cpp" line="621" col="31" msg="implicit conversion changes signedness: &apos;int&apos; to &apos;size_type&apos; (aka &apos;unsigned int&apos;)" />
 <error level="warning" id="warn_old_style_cast" file="H:\Vlad\[Sandbox]\Graphics\Graphics\AntTweakBar\src\TwDirect3D9.cpp" line="625" col="37" msg="use of old-style cast" />
 <error level="warning" id="warn_impcast_integer_sign" file="H:\Vlad\[Sandbox]\Graphics\Graphics\AntTweakBar\src\TwDirect3D9.cpp" line="625" col="23" msg="implicit conversion changes signedness: &apos;int&apos; to &apos;size_type&apos; (aka &apos;unsigned int&apos;)" />
 <error level="warning" id="warn_old_style_cast" file="H:\Vlad\[Sandbox]\Graphics\Graphics\AntTweakBar\src\TwDirect3D9.cpp" line="626" col="37" msg="use of old-style cast" />
 <error level="warning" id="warn_impcast_integer_sign" file="H:\Vlad\[Sandbox]\Graphics\Graphics\AntTweakBar\src\TwDirect3D9.cpp" line="626" col="23" msg="implicit conversion changes signedness: &apos;int&apos; to &apos;size_type&apos; (aka &apos;unsigned int&apos;)" />
 <error level="warning" id="warn_impcast_integer_sign" file="H:\Vlad\[Sandbox]\Graphics\Graphics\AntTweakBar\src\TwDirect3D9.cpp" line="627" col="23" msg="implicit conversion changes signedness: &apos;int&apos; to &apos;size_type&apos; (aka &apos;unsigned int&apos;)" />
 <error level="warning" id="warn_impcast_integer_sign" file="H:\Vlad\[Sandbox]\Graphics\Graphics\AntTweakBar\src\TwDirect3D9.cpp" line="628" col="23" msg="implicit conversion changes signedness: &apos;int&apos; to &apos;size_type&apos; (aka &apos;unsigned int&apos;)" />
 <error level="warning" id="warn_impcast_integer_sign" file="H:\Vlad\[Sandbox]\Graphics\Graphics\AntTweakBar\src\TwDirect3D9.cpp" line="629" col="23" msg="implicit conversion changes signedness: &apos;int&apos; to &apos;size_type&apos; (aka &apos;unsigned int&apos;)" />
 <error level="warning" id="warn_impcast_integer_sign" file="H:\Vlad\[Sandbox]\Graphics\Graphics\AntTweakBar\src\TwDirect3D9.cpp" line="635" col="51" msg="implicit conversion changes signedness: &apos;int&apos; to &apos;UINT&apos; (aka &apos;unsigned int&apos;)" />
 <error level="note" id="note_template_member_function_here" file="H:\Vlad\[Sandbox]\Graphics\Graphics\AntTweakBar\src\TwDirect3D9.cpp" line="390" col="26" msg="in instantiation of member function &apos;std::vector&lt;CTwGraphDirect3D9::CTextVtx, std::allocator&lt;CTwGraphDirect3D9::CTextVtx&gt; &gt;::resize&apos; requested here" />
 <error level="note" id="note_template_member_function_here" file="H:\Vlad\[Sandbox]\Graphics\Graphics\AntTweakBar\src\TwDirect3D9.cpp" line="390" col="26" msg="in instantiation of member function &apos;std::vector&lt;CTwGraphDirect3D9::CTextVtx, std::allocator&lt;CTwGraphDirect3D9::CTextVtx&gt; &gt;::resize&apos; requested here" />
 <error level="note" id="note_template_member_function_here" file="H:\Vlad\[Sandbox]\Graphics\Graphics\AntTweakBar\src\TwDirect3D9.cpp" line="390" col="26" msg="in instantiation of member function &apos;std::vector&lt;CTwGraphDirect3D9::CTextVtx, std::allocator&lt;CTwGraphDirect3D9::CTextVtx&gt; &gt;::resize&apos; requested here" />
 <error level="note" id="note_template_member_function_here" file="H:\Vlad\[Sandbox]\Graphics\Graphics\AntTweakBar\src\TwDirect3D9.cpp" line="391" col="24" msg="in instantiation of member function &apos;std::vector&lt;CTwGraphDirect3D9::CBgVtx, std::allocator&lt;CTwGraphDirect3D9::CBgVtx&gt; &gt;::resize&apos; requested here" />
 <error level="note" id="note_template_member_function_here" file="H:\Vlad\[Sandbox]\Graphics\Graphics\AntTweakBar\src\TwDirect3D9.cpp" line="391" col="24" msg="in instantiation of member function &apos;std::vector&lt;CTwGraphDirect3D9::CBgVtx, std::allocator&lt;CTwGraphDirect3D9::CBgVtx&gt; &gt;::resize&apos; requested here" />
 <error level="note" id="note_template_member_function_here" file="H:\Vlad\[Sandbox]\Graphics\Graphics\AntTweakBar\src\TwDirect3D9.cpp" line="391" col="24" msg="in instantiation of member function &apos;std::vector&lt;CTwGraphDirect3D9::CBgVtx, std::allocator&lt;CTwGraphDirect3D9::CBgVtx&gt; &gt;::resize&apos; requested here" />
 <error level="note" id="note_template_member_function_here" file="H:\Vlad\[Sandbox]\Graphics\Graphics\AntTweakBar\src\TwDirect3D9.cpp" line="426" col="34" msg="in instantiation of member function &apos;std::vector&lt;CTwGraphDirect3D9::CTextVtx, std::allocator&lt;CTwGraphDirect3D9::CTextVtx&gt; &gt;::push_back&apos; requested here" />
 <error level="note" id="note_template_member_function_here" file="H:\Vlad\[Sandbox]\Graphics\Graphics\AntTweakBar\src\TwDirect3D9.cpp" line="469" col="32" msg="in instantiation of member function &apos;std::vector&lt;CTwGraphDirect3D9::CBgVtx, std::allocator&lt;CTwGraphDirect3D9::CBgVtx&gt; &gt;::push_back&apos; requested here" />
 <error level="note" id="note_template_member_function_here" file="H:\Vlad\[Sandbox]\Graphics\Graphics\AntTweakBar\src\TwDirect3D9.cpp" line="506" col="40" msg="in instantiation of member function &apos;std::vector&lt;CTwGraphDirect3D9::CTextVtx, std::allocator&lt;CTwGraphDirect3D9::CTextVtx&gt; &gt;::size&apos; requested here" />
 <error level="note" id="note_template_member_function_here" file="H:\Vlad\[Sandbox]\Graphics\Graphics\AntTweakBar\src\TwDirect3D9.cpp" line="507" col="38" msg="in instantiation of member function &apos;std::vector&lt;CTwGraphDirect3D9::CBgVtx, std::allocator&lt;CTwGraphDirect3D9::CBgVtx&gt; &gt;::size&apos; requested here" />
 <error level="note" id="note_template_member_function_here" file="H:\Vlad\[Sandbox]\Graphics\Graphics\AntTweakBar\src\TwDirect3D9.cpp" line="620" col="28" msg="in instantiation of member function &apos;std::vector&lt;CTwGraphDirect3D9::CTriVtx, std::allocator&lt;CTwGraphDirect3D9::CTriVtx&gt; &gt;::size&apos; requested here" />
 <error level="note" id="note_template_member_function_here" file="H:\Vlad\[Sandbox]\Graphics\Graphics\AntTweakBar\src\TwDirect3D9.cpp" line="621" col="23" msg="in instantiation of member function &apos;std::vector&lt;CTwGraphDirect3D9::CTriVtx, std::allocator&lt;CTwGraphDirect3D9::CTriVtx&gt; &gt;::resize&apos; requested here" />
 <error level="note" id="note_template_member_function_here" file="H:\Vlad\[Sandbox]\Graphics\Graphics\AntTweakBar\src\TwDirect3D9.cpp" line="621" col="23" msg="in instantiation of member function &apos;std::vector&lt;CTwGraphDirect3D9::CTriVtx, std::allocator&lt;CTwGraphDirect3D9::CTriVtx&gt; &gt;::resize&apos; requested here" />
 <error level="note" id="note_template_member_function_here" file="H:\Vlad\[Sandbox]\Graphics\Graphics\AntTweakBar\src\TwDirect3D9.cpp" line="621" col="23" msg="in instantiation of member function &apos;std::vector&lt;CTwGraphDirect3D9::CTriVtx, std::allocator&lt;CTwGraphDirect3D9::CTriVtx&gt; &gt;::resize&apos; requested here" />
 <error level="note" id="note_template_member_function_here" file="H:\Vlad\[Sandbox]\Graphics\Graphics\AntTweakBar\src\TwDirect3D9.cpp" line="621" col="23" msg="in instantiation of member function &apos;std::vector&lt;CTwGraphDirect3D9::CTriVtx, std::allocator&lt;CTwGraphDirect3D9::CTriVtx&gt; &gt;::resize&apos; requested here" />
</log>