<log>
 <error level="warning" id="warn_old_style_cast" file="H:\Vlad\[Sandbox]\Graphics\Graphics\AntTweakBar\src\TwEventSFML.cpp" line="38" col="30" msg="use of old-style cast" />
 <error level="warning" id="warn_def_missing_case" file="H:\Vlad\[Sandbox]\Graphics\Graphics\AntTweakBar\src\TwEventSFML.cpp" line="57" col="17" msg="87 enumeration values not explicitly handled in switch: &apos;Num0&apos;, &apos;Num1&apos;, &apos;Num2&apos;..." />
 <error level="warning" id="warn_def_missing_case" file="H:\Vlad\[Sandbox]\Graphics\Graphics\AntTweakBar\src\TwEventSFML.cpp" line="144" col="17" msg="enumeration values &apos;XButton1&apos;, &apos;XButton2&apos;, and &apos;Count&apos; not explicitly handled in switch" />
 <error level="warning" id="warn_impcast_integer_sign" file="H:\Vlad\[Sandbox]\Graphics\Graphics\AntTweakBar\src\TwEventSFML.cpp" line="165" col="34" msg="implicit conversion changes signedness: &apos;const unsigned int&apos; to &apos;int&apos;" />
 <error level="warning" id="warn_impcast_integer_sign" file="H:\Vlad\[Sandbox]\Graphics\Graphics\AntTweakBar\src\TwEventSFML.cpp" line="165" col="53" msg="implicit conversion changes signedness: &apos;const unsigned int&apos; to &apos;int&apos;" />
 <error level="warning" id="warn_def_missing_case" file="H:\Vlad\[Sandbox]\Graphics\Graphics\AntTweakBar\src\TwEventSFML.cpp" line="48" col="13" msg="8 enumeration values not explicitly handled in switch: &apos;Closed&apos;, &apos;LostFocus&apos;, &apos;GainedFocus&apos;..." />
</log>