<log>
 <error level="warning" id="warn_missing_variable_declarations" file="H:\Vlad\[Sandbox]\Graphics\Graphics\AntTweakBar\src\TwEventGLFW.c" line="38" col="5" msg="no previous extern declaration for non-static variable &apos;g_KMod&apos;" />
 <error level="warning" id="ext_token_used" file="H:\Vlad\[Sandbox]\Graphics\Graphics\AntTweakBar\src\TwEventGLFW.c" line="193" col="1" msg="extension used" />
 <error level="warning" id="ext_token_used" file="H:\Vlad\[Sandbox]\Graphics\Graphics\AntTweakBar\src\TwEventGLFW.c" line="197" col="1" msg="extension used" />
 <error level="warning" id="warn_missing_prototype" file="H:\Vlad\[Sandbox]\Graphics\Graphics\AntTweakBar\src\TwEventGLFW.c" line="193" col="26" msg="no previous prototype for function &apos;TwEventMouseButtonGLFWcdecl&apos;" />
 <error level="warning" id="ext_token_used" file="H:\Vlad\[Sandbox]\Graphics\Graphics\AntTweakBar\src\TwEventGLFW.c" line="201" col="1" msg="extension used" />
 <error level="warning" id="warn_missing_prototype" file="H:\Vlad\[Sandbox]\Graphics\Graphics\AntTweakBar\src\TwEventGLFW.c" line="197" col="26" msg="no previous prototype for function &apos;TwEventKeyGLFWcdecl&apos;" />
 <error level="warning" id="ext_token_used" file="H:\Vlad\[Sandbox]\Graphics\Graphics\AntTweakBar\src\TwEventGLFW.c" line="205" col="1" msg="extension used" />
 <error level="warning" id="warn_missing_prototype" file="H:\Vlad\[Sandbox]\Graphics\Graphics\AntTweakBar\src\TwEventGLFW.c" line="201" col="26" msg="no previous prototype for function &apos;TwEventCharGLFWcdecl&apos;" />
 <error level="warning" id="ext_token_used" file="H:\Vlad\[Sandbox]\Graphics\Graphics\AntTweakBar\src\TwEventGLFW.c" line="209" col="1" msg="extension used" />
 <error level="warning" id="warn_missing_prototype" file="H:\Vlad\[Sandbox]\Graphics\Graphics\AntTweakBar\src\TwEventGLFW.c" line="205" col="26" msg="no previous prototype for function &apos;TwEventMousePosGLFWcdecl&apos;" />
 <error level="warning" id="warn_missing_prototype" file="H:\Vlad\[Sandbox]\Graphics\Graphics\AntTweakBar\src\TwEventGLFW.c" line="209" col="26" msg="no previous prototype for function &apos;TwEventMouseWheelGLFWcdecl&apos;" />
</log>