<log>
 <error level="warning" id="warn_using_directive_in_header" file="H:\Vlad\[Sandbox]\Graphics\Graphics\ann\src/kd_tree.h" line="32" col="17" msg="using namespace directive in global context in header" />
 <error level="warning" id="warn_unused_parameter" file="H:\Vlad\[Sandbox]\Graphics\Graphics\ann\src\kd_split.cpp" line="47" col="21" msg="unused parameter &apos;bnds&apos;" />
 <error level="warning" id="warn_old_style_cast" file="H:\Vlad\[Sandbox]\Graphics\Graphics\ann\src\kd_split.cpp" line="270" col="8" msg="use of old-style cast" />
 <error level="warning" id="warn_old_style_cast" file="H:\Vlad\[Sandbox]\Graphics\Graphics\ann\src\kd_split.cpp" line="270" col="34" msg="use of old-style cast" />
 <error level="warning" id="warn_old_style_cast" file="H:\Vlad\[Sandbox]\Graphics\Graphics\ann\src\kd_split.cpp" line="376" col="8" msg="use of old-style cast" />
 <error level="warning" id="warn_old_style_cast" file="H:\Vlad\[Sandbox]\Graphics\Graphics\ann\src\kd_split.cpp" line="376" col="34" msg="use of old-style cast" />
</log>