<log>
 <error level="warning" id="warn_using_directive_in_header" file="H:\Vlad\[Sandbox]\Graphics\Graphics\ann\src/kd_tree.h" line="32" col="17" msg="using namespace directive in global context in header" />
 <error level="warning" id="warn_deprecated_register" file="H:\Vlad\[Sandbox]\Graphics\Graphics\ann\src\kd_util.cpp" line="130" col="2" msg="&apos;register&apos; storage class specifier is deprecated" />
 <error level="warning" id="warn_deprecated_register" file="H:\Vlad\[Sandbox]\Graphics\Graphics\ann\src\kd_util.cpp" line="131" col="2" msg="&apos;register&apos; storage class specifier is deprecated" />
 <error level="warning" id="warn_deprecated_register" file="H:\Vlad\[Sandbox]\Graphics\Graphics\ann\src\kd_util.cpp" line="133" col="7" msg="&apos;register&apos; storage class specifier is deprecated" />
 <error level="warning" id="warn_deprecated_register" file="H:\Vlad\[Sandbox]\Graphics\Graphics\ann\src\kd_util.cpp" line="241" col="3" msg="&apos;register&apos; storage class specifier is deprecated" />
 <error level="warning" id="warn_deprecated_register" file="H:\Vlad\[Sandbox]\Graphics\Graphics\ann\src\kd_util.cpp" line="242" col="3" msg="&apos;register&apos; storage class specifier is deprecated" />
 <error level="warning" id="warn_impcast_integer_sign" file="H:\Vlad\[Sandbox]\Graphics\Graphics\ann\src\kd_util.cpp" line="400" col="30" msg="implicit conversion changes signedness: &apos;int&apos; to &apos;unsigned int&apos;" />
</log>