./fxc /nologo /O3 /T ps_5_1 /Fo BBoxO.PS.cso BBoxO.PS.hlsl
compilation object save succeeded; see D:\Dev\Vs\Proj\Graphics\Graphics\CiriFXCompiler\BBoxO.PS.cso
./fxc /nologo /O3 /T ps_5_1 /Fo Billboard.PS.cso Billboard.PS.hlsl
compilation object save succeeded; see D:\Dev\Vs\Proj\Graphics\Graphics\CiriFXCompiler\Billboard.PS.cso
./fxc /nologo /O3 /T ps_5_1 /Fo ProfilerGraph.PS.cso ProfilerGraph.PS.hlsl
compilation object save succeeded; see D:\Dev\Vs\Proj\Graphics\Graphics\CiriFXCompiler\ProfilerGraph.PS.cso
./fxc /nologo /O3 /T ps_5_1 /Fo Shape.Light.PS.cso Shape.Light.PS.hlsl
compilation object save succeeded; see D:\Dev\Vs\Proj\Graphics\Graphics\CiriFXCompiler\Shape.Light.PS.cso
./fxc /nologo /O3 /T ps_5_1 /Fo Shape.PS.cso Shape.PS.hlsl
compilation object save succeeded; see D:\Dev\Vs\Proj\Graphics\Graphics\CiriFXCompiler\Shape.PS.cso
./fxc /nologo /O3 /T ps_5_1 /Fo Untextured.PS.cso Untextured.PS.hlsl
compilation object save succeeded; see D:\Dev\Vs\Proj\Graphics\Graphics\CiriFXCompiler\Untextured.PS.cso
./fxc /nologo /O3 /T gs_5_1 /Fo BBoxO.Lines.GS.cso BBoxO.Lines.GS.hlsl
compilation object save succeeded; see D:\Dev\Vs\Proj\Graphics\Graphics\CiriFXCompiler\BBoxO.Lines.GS.cso
./fxc /nologo /O3 /T gs_5_1 /Fo BBoxO.Points.GS.cso BBoxO.Points.GS.hlsl
compilation object save succeeded; see D:\Dev\Vs\Proj\Graphics\Graphics\CiriFXCompiler\BBoxO.Points.GS.cso
./fxc /nologo /O3 /T gs_5_1 /Fo BBoxO.Polies.GS.cso BBoxO.Polies.GS.hlsl
compilation object save succeeded; see D:\Dev\Vs\Proj\Graphics\Graphics\CiriFXCompiler\BBoxO.Polies.GS.cso
./fxc /nologo /O3 /T gs_5_1 /Fo Shape.GS.cso Shape.GS.hlsl
compilation object save succeeded; see D:\Dev\Vs\Proj\Graphics\Graphics\CiriFXCompiler\Shape.GS.cso
./fxc /nologo /O3 /T vs_5_1 /Fo BBoxO.VS.cso BBoxO.VS.hlsl
compilation object save succeeded; see D:\Dev\Vs\Proj\Graphics\Graphics\CiriFXCompiler\BBoxO.VS.cso
./fxc /nologo /O3 /T vs_5_1 /Fo Billboard.VS.cso Billboard.VS.hlsl
compilation object save succeeded; see D:\Dev\Vs\Proj\Graphics\Graphics\CiriFXCompiler\Billboard.VS.cso
./fxc /nologo /O3 /T vs_5_1 /Fo ProfilerGraph.VS.cso ProfilerGraph.VS.hlsl
compilation object save succeeded; see D:\Dev\Vs\Proj\Graphics\Graphics\CiriFXCompiler\ProfilerGraph.VS.cso
./fxc /nologo /O3 /T vs_5_1 /Fo Shape.VS.cso Shape.VS.hlsl
compilation object save succeeded; see D:\Dev\Vs\Proj\Graphics\Graphics\CiriFXCompiler\Shape.VS.cso
./fxc /nologo /O3 /T vs_5_1 /Fo Untextured.VS.cso Untextured.VS.hlsl
compilation object save succeeded; see D:\Dev\Vs\Proj\Graphics\Graphics\CiriFXCompiler\Untextured.VS.cso

-------------------------------------------------------------------------------
   ROBOCOPY     ::     Robust File Copy for Windows                              
-------------------------------------------------------------------------------

  Started : 01 February 2015 02:52:19
   Source : D:\Dev\Vs\Proj\Graphics\Graphics\CiriFXCompiler\
     Dest : D:\Dev\Vs\Proj\Graphics\Graphics\assets\shaders\

    Files : *.cso
	    
  Options : /DCOPY:DA /COPY:DAT /R:1000000 /W:30 

------------------------------------------------------------------------------

	                  15	D:\Dev\Vs\Proj\Graphics\Graphics\CiriFXCompiler\
	    Newer     		    5788	BBoxO.Lines.GS.cso  0%  100%  
	    Newer     		    5288	BBoxO.Points.GS.cso  0%  100%  
	    Newer     		     664	BBoxO.Polies.GS.cso  0%  100%  
	    Newer     		     528	BBoxO.PS.cso  0%  100%  
	    Newer     		     456	BBoxO.VS.cso  0%  100%  
	    Newer     		     528	Billboard.PS.cso  0%  100%  
	    Newer     		    1584	Billboard.VS.cso  0%  100%  
	    Newer     		    1340	ProfilerGraph.PS.cso  0%  100%  
	    Newer     		    1628	ProfilerGraph.VS.cso  0%  100%  
	    Newer     		    3116	Shape.GS.cso  0%  100%  
	    Newer     		    1180	Shape.Light.PS.cso  0%  100%  
	    Newer     		     564	Shape.PS.cso  0%  100%  
	    Newer     		     880	Shape.VS.cso  0%  100%  
	    Newer     		     548	Untextured.PS.cso  0%  100%  
	    Newer     		     624	Untextured.VS.cso  0%  100%  

------------------------------------------------------------------------------

               Total    Copied   Skipped  Mismatch    FAILED    Extras
    Dirs :         1         0         1         0         0         0
   Files :        15        15         0         0         0         0
   Bytes :    24.1 k    24.1 k         0         0         0         0
   Times :   0:00:00   0:00:00                       0:00:00   0:00:00


   Speed :             1074608 Bytes/sec.
   Speed :              61.489 MegaBytes/min.
   Ended : 01 February 2015 02:52:19

