<log>
 <error level="warning" id="warn_doc_tparam_not_found" file="H:\Vlad\[Sandbox]\Graphics\Graphics\eigen\Eigen/src/Core/DenseCoeffsBase.h" line="25" col="13" msg="template parameter &apos;#ReadOnlyAccessors&apos; not found in the template declaration" />
 <error level="warning" id="warn_doc_tparam_not_found" file="H:\Vlad\[Sandbox]\Graphics\Graphics\eigen\Eigen/src/Core/DenseCoeffsBase.h" line="265" col="13" msg="template parameter &apos;#WriteAccessors&apos; not found in the template declaration" />
 <error level="warning" id="warn_doc_tparam_not_found" file="H:\Vlad\[Sandbox]\Graphics\Graphics\eigen\Eigen/src/Core/DenseCoeffsBase.h" line="557" col="13" msg="template parameter &apos;#DirectAccessors&apos; not found in the template declaration" />
 <error level="warning" id="warn_doc_tparam_not_found" file="H:\Vlad\[Sandbox]\Graphics\Graphics\eigen\Eigen/src/Core/DenseCoeffsBase.h" line="627" col="13" msg="template parameter &apos;#DirectWriteAccessors&apos; not found in the template declaration" />
 <error level="warning" id="warn_doc_param_not_found" file="H:\Vlad\[Sandbox]\Graphics\Graphics\eigen\Eigen/src/Geometry/RotationBase.h" line="167" col="12" msg="parameter &apos;Scalar&apos; not found in the function declaration" />
 <error level="warning" id="warn_doc_param_not_found" file="H:\Vlad\[Sandbox]\Graphics\Graphics\eigen\Eigen/src/Geometry/RotationBase.h" line="168" col="12" msg="parameter &apos;Dim&apos; not found in the function declaration" />
 <error level="warning" id="warn_old_style_cast" file="H:\Vlad\[Sandbox]\Graphics\Graphics\Fovis\LibFovis\feature_matcher.cpp" line="14" col="28" msg="use of old-style cast" />
 <error level="warning" id="warn_impcast_integer_sign" file="H:\Vlad\[Sandbox]\Graphics\Graphics\Fovis\LibFovis\feature_matcher.cpp" line="14" col="46" msg="implicit conversion changes signedness: &apos;int&apos; to &apos;unsigned int&apos;" />
 <error level="warning" id="warn_old_style_cast" file="H:\Vlad\[Sandbox]\Graphics\Graphics\Fovis\LibFovis\feature_matcher.cpp" line="18" col="27" msg="use of old-style cast" />
 <error level="warning" id="warn_impcast_integer_sign" file="H:\Vlad\[Sandbox]\Graphics\Graphics\Fovis\LibFovis\feature_matcher.cpp" line="18" col="45" msg="implicit conversion changes signedness: &apos;int&apos; to &apos;unsigned int&apos;" />
 <error level="warning" id="warn_old_style_cast" file="H:\Vlad\[Sandbox]\Graphics\Graphics\Fovis\LibFovis\feature_matcher.cpp" line="22" col="28" msg="use of old-style cast" />
 <error level="warning" id="warn_impcast_integer_sign" file="H:\Vlad\[Sandbox]\Graphics\Graphics\Fovis\LibFovis\feature_matcher.cpp" line="22" col="46" msg="implicit conversion changes signedness: &apos;int&apos; to &apos;unsigned int&apos;" />
 <error level="warning" id="warn_old_style_cast" file="H:\Vlad\[Sandbox]\Graphics\Graphics\Fovis\LibFovis\feature_matcher.cpp" line="26" col="27" msg="use of old-style cast" />
 <error level="warning" id="warn_impcast_integer_sign" file="H:\Vlad\[Sandbox]\Graphics\Graphics\Fovis\LibFovis\feature_matcher.cpp" line="26" col="45" msg="implicit conversion changes signedness: &apos;int&apos; to &apos;unsigned int&apos;" />
 <error level="warning" id="warn_old_style_cast" file="H:\Vlad\[Sandbox]\Graphics\Graphics\Fovis\LibFovis\feature_matcher.cpp" line="52" col="30" msg="use of old-style cast" />
 <error level="warning" id="warn_impcast_integer_sign" file="H:\Vlad\[Sandbox]\Graphics\Graphics\Fovis\LibFovis\feature_matcher.cpp" line="52" col="73" msg="implicit conversion changes signedness: &apos;int&apos; to &apos;unsigned int&apos;" />
 <error level="warning" id="warn_old_style_cast" file="H:\Vlad\[Sandbox]\Graphics\Graphics\Fovis\LibFovis\feature_matcher.cpp" line="53" col="29" msg="use of old-style cast" />
 <error level="warning" id="warn_impcast_integer_sign" file="H:\Vlad\[Sandbox]\Graphics\Graphics\Fovis\LibFovis\feature_matcher.cpp" line="53" col="71" msg="implicit conversion changes signedness: &apos;int&apos; to &apos;unsigned int&apos;" />
 <error level="warning" id="warn_impcast_integer_sign" file="H:\Vlad\[Sandbox]\Graphics\Graphics\Fovis\LibFovis\feature_matcher.cpp" line="58" col="40" msg="implicit conversion changes signedness: &apos;unsigned int&apos; to &apos;int&apos;" />
 <error level="warning" id="warn_impcast_integer_sign" file="H:\Vlad\[Sandbox]\Graphics\Graphics\Fovis\LibFovis\feature_matcher.cpp" line="58" col="20" msg="implicit conversion changes signedness: &apos;int&apos; to &apos;unsigned int&apos;" />
 <error level="warning" id="warn_old_style_cast" file="H:\Vlad\[Sandbox]\Graphics\Graphics\Fovis\LibFovis\feature_matcher.cpp" line="59" col="30" msg="use of old-style cast" />
 <error level="warning" id="warn_impcast_integer_sign" file="H:\Vlad\[Sandbox]\Graphics\Graphics\Fovis\LibFovis\feature_matcher.cpp" line="59" col="73" msg="implicit conversion changes signedness: &apos;int&apos; to &apos;size_t&apos; (aka &apos;unsigned int&apos;)" />
 <error level="warning" id="warn_old_style_cast" file="H:\Vlad\[Sandbox]\Graphics\Graphics\Fovis\LibFovis\feature_matcher.cpp" line="60" col="29" msg="use of old-style cast" />
 <error level="warning" id="warn_impcast_integer_sign" file="H:\Vlad\[Sandbox]\Graphics\Graphics\Fovis\LibFovis\feature_matcher.cpp" line="60" col="71" msg="implicit conversion changes signedness: &apos;int&apos; to &apos;size_t&apos; (aka &apos;unsigned int&apos;)" />
 <error level="warning" id="warn_impcast_integer_sign" file="H:\Vlad\[Sandbox]\Graphics\Graphics\Fovis\LibFovis\feature_matcher.cpp" line="90" col="55" msg="implicit conversion changes signedness: &apos;int&apos; to &apos;size_type&apos; (aka &apos;unsigned int&apos;)" />
</log>