<log>
 <error level="warning" id="warn_doc_tparam_not_found" file="H:\Vlad\[Sandbox]\Graphics\Graphics\eigen\Eigen/src/Core/DenseCoeffsBase.h" line="25" col="13" msg="template parameter &apos;#ReadOnlyAccessors&apos; not found in the template declaration" />
 <error level="warning" id="warn_doc_tparam_not_found" file="H:\Vlad\[Sandbox]\Graphics\Graphics\eigen\Eigen/src/Core/DenseCoeffsBase.h" line="265" col="13" msg="template parameter &apos;#WriteAccessors&apos; not found in the template declaration" />
 <error level="warning" id="warn_doc_tparam_not_found" file="H:\Vlad\[Sandbox]\Graphics\Graphics\eigen\Eigen/src/Core/DenseCoeffsBase.h" line="557" col="13" msg="template parameter &apos;#DirectAccessors&apos; not found in the template declaration" />
 <error level="warning" id="warn_doc_tparam_not_found" file="H:\Vlad\[Sandbox]\Graphics\Graphics\eigen\Eigen/src/Core/DenseCoeffsBase.h" line="627" col="13" msg="template parameter &apos;#DirectWriteAccessors&apos; not found in the template declaration" />
 <error level="warning" id="warn_doc_param_not_found" file="H:\Vlad\[Sandbox]\Graphics\Graphics\eigen\Eigen/src/Geometry/RotationBase.h" line="167" col="12" msg="parameter &apos;Scalar&apos; not found in the function declaration" />
 <error level="warning" id="warn_doc_param_not_found" file="H:\Vlad\[Sandbox]\Graphics\Graphics\eigen\Eigen/src/Geometry/RotationBase.h" line="168" col="12" msg="parameter &apos;Dim&apos; not found in the function declaration" />
 <error level="warning" id="warn_decl_shadow" file="H:\Vlad\[Sandbox]\Graphics\Graphics\Fovis\LibFovis\primesense_depth.cpp" line="11" col="85" msg="declaration shadows a field of &apos;fovis::PrimeSenseCalibration&apos;" />
 <error level="warning" id="warn_impcast_integer_sign" file="H:\Vlad\[Sandbox]\Graphics\Graphics\Fovis\LibFovis\primesense_depth.cpp" line="30" col="53" msg="implicit conversion changes signedness: &apos;int&apos; to &apos;uint32_t&apos; (aka &apos;unsigned int&apos;)" />
 <error level="warning" id="warn_old_style_cast" file="H:\Vlad\[Sandbox]\Graphics\Graphics\Fovis\LibFovis\primesense_depth.cpp" line="31" col="16" msg="use of old-style cast" />
 <error level="warning" id="warn_impcast_integer_sign" file="H:\Vlad\[Sandbox]\Graphics\Graphics\Fovis\LibFovis\primesense_depth.cpp" line="31" col="45" msg="implicit conversion changes signedness: &apos;int&apos; to &apos;unsigned int&apos;" />
 <error level="warning" id="warn_old_style_cast" file="H:\Vlad\[Sandbox]\Graphics\Graphics\Fovis\LibFovis\primesense_depth.cpp" line="37" col="27" msg="use of old-style cast" />
 <error level="warning" id="warn_impcast_integer_sign" file="H:\Vlad\[Sandbox]\Graphics\Graphics\Fovis\LibFovis\primesense_depth.cpp" line="37" col="56" msg="implicit conversion changes signedness: &apos;int&apos; to &apos;unsigned int&apos;" />
 <error level="warning" id="warn_decl_shadow" file="H:\Vlad\[Sandbox]\Graphics\Graphics\Fovis\LibFovis\primesense_depth.cpp" line="69" col="16" msg="declaration shadows a local variable" />
 <error level="note" id="note_previous_declaration" file="H:\Vlad\[Sandbox]\Graphics\Graphics\Fovis\LibFovis\primesense_depth.cpp" line="50" col="51" msg="previous declaration is here" />
 <error level="warning" id="warn_impcast_float_integer" file="H:\Vlad\[Sandbox]\Graphics\Graphics\Fovis\LibFovis\primesense_depth.cpp" line="82" col="43" msg="implicit conversion turns floating-point number into integer: &apos;double&apos; to &apos;int&apos;" />
 <error level="warning" id="warn_impcast_float_integer" file="H:\Vlad\[Sandbox]\Graphics\Graphics\Fovis\LibFovis\primesense_depth.cpp" line="86" col="43" msg="implicit conversion turns floating-point number into integer: &apos;double&apos; to &apos;int&apos;" />
 <error level="warning" id="warn_impcast_integer_sign" file="H:\Vlad\[Sandbox]\Graphics\Graphics\Fovis\LibFovis\primesense_depth.cpp" line="93" col="44" msg="implicit conversion changes signedness: &apos;int&apos; to &apos;uint32_t&apos; (aka &apos;unsigned int&apos;)" />
 <error level="warning" id="warn_unused_parameter" file="H:\Vlad\[Sandbox]\Graphics\Graphics\Fovis\LibFovis\primesense_depth.cpp" line="118" col="44" msg="unused parameter &apos;frame&apos;" />
 <error level="warning" id="warn_old_style_cast" file="H:\Vlad\[Sandbox]\Graphics\Graphics\Fovis\LibFovis\primesense_depth.cpp" line="163" col="7" msg="use of old-style cast" />
 <error level="warning" id="warn_old_style_cast" file="H:\Vlad\[Sandbox]\Graphics\Graphics\Fovis\LibFovis\primesense_depth.cpp" line="164" col="7" msg="use of old-style cast" />
 <error level="warning" id="warn_impcast_integer_sign" file="H:\Vlad\[Sandbox]\Graphics\Graphics\Fovis\LibFovis\primesense_depth.cpp" line="177" col="32" msg="implicit conversion changes signedness: &apos;unsigned int&apos; to &apos;int&apos;" />
 <error level="warning" id="warn_impcast_integer_sign" file="H:\Vlad\[Sandbox]\Graphics\Graphics\Fovis\LibFovis\primesense_depth.cpp" line="177" col="34" msg="implicit conversion changes signedness: &apos;int&apos; to &apos;unsigned int&apos;" />
 <error level="warning" id="warn_impcast_integer_sign" file="H:\Vlad\[Sandbox]\Graphics\Graphics\Fovis\LibFovis\primesense_depth.cpp" line="178" col="32" msg="implicit conversion changes signedness: &apos;unsigned int&apos; to &apos;int&apos;" />
 <error level="warning" id="warn_impcast_integer_sign" file="H:\Vlad\[Sandbox]\Graphics\Graphics\Fovis\LibFovis\primesense_depth.cpp" line="178" col="34" msg="implicit conversion changes signedness: &apos;int&apos; to &apos;unsigned int&apos;" />
 <error level="warning" id="warn_old_style_cast" file="H:\Vlad\[Sandbox]\Graphics\Graphics\Fovis\LibFovis\primesense_depth.cpp" line="192" col="11" msg="use of old-style cast" />
 <error level="warning" id="warn_old_style_cast" file="H:\Vlad\[Sandbox]\Graphics\Graphics\Fovis\LibFovis\primesense_depth.cpp" line="193" col="11" msg="use of old-style cast" />
 <error level="warning" id="warn_old_style_cast" file="H:\Vlad\[Sandbox]\Graphics\Graphics\Fovis\LibFovis\primesense_depth.cpp" line="199" col="36" msg="use of old-style cast" />
 <error level="warning" id="warn_old_style_cast" file="H:\Vlad\[Sandbox]\Graphics\Graphics\Fovis\LibFovis\primesense_depth.cpp" line="199" col="36" msg="use of old-style cast" />
 <error level="warning" id="warn_old_style_cast" file="H:\Vlad\[Sandbox]\Graphics\Graphics\Fovis\LibFovis\primesense_depth.cpp" line="199" col="41" msg="use of old-style cast" />
 <error level="warning" id="warn_old_style_cast" file="H:\Vlad\[Sandbox]\Graphics\Graphics\Fovis\LibFovis\primesense_depth.cpp" line="199" col="41" msg="use of old-style cast" />
 <error level="warning" id="warn_old_style_cast" file="H:\Vlad\[Sandbox]\Graphics\Graphics\Fovis\LibFovis\primesense_depth.cpp" line="199" col="46" msg="use of old-style cast" />
 <error level="warning" id="warn_old_style_cast" file="H:\Vlad\[Sandbox]\Graphics\Graphics\Fovis\LibFovis\primesense_depth.cpp" line="199" col="46" msg="use of old-style cast" />
 <error level="warning" id="warn_old_style_cast" file="H:\Vlad\[Sandbox]\Graphics\Graphics\Fovis\LibFovis\primesense_depth.cpp" line="199" col="51" msg="use of old-style cast" />
 <error level="warning" id="warn_old_style_cast" file="H:\Vlad\[Sandbox]\Graphics\Graphics\Fovis\LibFovis\primesense_depth.cpp" line="199" col="51" msg="use of old-style cast" />
 <error level="warning" id="warn_old_style_cast" file="H:\Vlad\[Sandbox]\Graphics\Graphics\Fovis\LibFovis\primesense_depth.cpp" line="200" col="35" msg="use of old-style cast" />
 <error level="warning" id="warn_old_style_cast" file="H:\Vlad\[Sandbox]\Graphics\Graphics\Fovis\LibFovis\primesense_depth.cpp" line="200" col="35" msg="use of old-style cast" />
 <error level="warning" id="warn_old_style_cast" file="H:\Vlad\[Sandbox]\Graphics\Graphics\Fovis\LibFovis\primesense_depth.cpp" line="200" col="40" msg="use of old-style cast" />
 <error level="warning" id="warn_old_style_cast" file="H:\Vlad\[Sandbox]\Graphics\Graphics\Fovis\LibFovis\primesense_depth.cpp" line="200" col="40" msg="use of old-style cast" />
 <error level="warning" id="warn_old_style_cast" file="H:\Vlad\[Sandbox]\Graphics\Graphics\Fovis\LibFovis\primesense_depth.cpp" line="200" col="45" msg="use of old-style cast" />
 <error level="warning" id="warn_old_style_cast" file="H:\Vlad\[Sandbox]\Graphics\Graphics\Fovis\LibFovis\primesense_depth.cpp" line="200" col="45" msg="use of old-style cast" />
 <error level="warning" id="warn_old_style_cast" file="H:\Vlad\[Sandbox]\Graphics\Graphics\Fovis\LibFovis\primesense_depth.cpp" line="201" col="25" msg="use of old-style cast" />
 <error level="warning" id="warn_old_style_cast" file="H:\Vlad\[Sandbox]\Graphics\Graphics\Fovis\LibFovis\primesense_depth.cpp" line="201" col="25" msg="use of old-style cast" />
 <error level="warning" id="warn_old_style_cast" file="H:\Vlad\[Sandbox]\Graphics\Graphics\Fovis\LibFovis\primesense_depth.cpp" line="208" col="36" msg="use of old-style cast" />
 <error level="warning" id="warn_old_style_cast" file="H:\Vlad\[Sandbox]\Graphics\Graphics\Fovis\LibFovis\primesense_depth.cpp" line="208" col="36" msg="use of old-style cast" />
 <error level="warning" id="warn_old_style_cast" file="H:\Vlad\[Sandbox]\Graphics\Graphics\Fovis\LibFovis\primesense_depth.cpp" line="208" col="41" msg="use of old-style cast" />
 <error level="warning" id="warn_old_style_cast" file="H:\Vlad\[Sandbox]\Graphics\Graphics\Fovis\LibFovis\primesense_depth.cpp" line="208" col="41" msg="use of old-style cast" />
 <error level="warning" id="warn_old_style_cast" file="H:\Vlad\[Sandbox]\Graphics\Graphics\Fovis\LibFovis\primesense_depth.cpp" line="208" col="46" msg="use of old-style cast" />
 <error level="warning" id="warn_old_style_cast" file="H:\Vlad\[Sandbox]\Graphics\Graphics\Fovis\LibFovis\primesense_depth.cpp" line="208" col="46" msg="use of old-style cast" />
 <error level="warning" id="warn_old_style_cast" file="H:\Vlad\[Sandbox]\Graphics\Graphics\Fovis\LibFovis\primesense_depth.cpp" line="208" col="51" msg="use of old-style cast" />
 <error level="warning" id="warn_old_style_cast" file="H:\Vlad\[Sandbox]\Graphics\Graphics\Fovis\LibFovis\primesense_depth.cpp" line="208" col="51" msg="use of old-style cast" />
 <error level="warning" id="warn_old_style_cast" file="H:\Vlad\[Sandbox]\Graphics\Graphics\Fovis\LibFovis\primesense_depth.cpp" line="209" col="35" msg="use of old-style cast" />
 <error level="warning" id="warn_old_style_cast" file="H:\Vlad\[Sandbox]\Graphics\Graphics\Fovis\LibFovis\primesense_depth.cpp" line="209" col="35" msg="use of old-style cast" />
 <error level="warning" id="warn_old_style_cast" file="H:\Vlad\[Sandbox]\Graphics\Graphics\Fovis\LibFovis\primesense_depth.cpp" line="209" col="40" msg="use of old-style cast" />
 <error level="warning" id="warn_old_style_cast" file="H:\Vlad\[Sandbox]\Graphics\Graphics\Fovis\LibFovis\primesense_depth.cpp" line="209" col="40" msg="use of old-style cast" />
 <error level="warning" id="warn_old_style_cast" file="H:\Vlad\[Sandbox]\Graphics\Graphics\Fovis\LibFovis\primesense_depth.cpp" line="209" col="45" msg="use of old-style cast" />
 <error level="warning" id="warn_old_style_cast" file="H:\Vlad\[Sandbox]\Graphics\Graphics\Fovis\LibFovis\primesense_depth.cpp" line="209" col="45" msg="use of old-style cast" />
 <error level="warning" id="warn_old_style_cast" file="H:\Vlad\[Sandbox]\Graphics\Graphics\Fovis\LibFovis\primesense_depth.cpp" line="210" col="25" msg="use of old-style cast" />
 <error level="warning" id="warn_old_style_cast" file="H:\Vlad\[Sandbox]\Graphics\Graphics\Fovis\LibFovis\primesense_depth.cpp" line="210" col="25" msg="use of old-style cast" />
 <error level="warning" id="warn_impcast_integer_sign" file="H:\Vlad\[Sandbox]\Graphics\Graphics\Fovis\LibFovis\primesense_depth.cpp" line="214" col="32" msg="implicit conversion changes signedness: &apos;unsigned int&apos; to &apos;int&apos;" />
 <error level="warning" id="warn_impcast_integer_sign" file="H:\Vlad\[Sandbox]\Graphics\Graphics\Fovis\LibFovis\primesense_depth.cpp" line="214" col="34" msg="implicit conversion changes signedness: &apos;int&apos; to &apos;unsigned int&apos;" />
 <error level="warning" id="warn_impcast_integer_sign" file="H:\Vlad\[Sandbox]\Graphics\Graphics\Fovis\LibFovis\primesense_depth.cpp" line="215" col="32" msg="implicit conversion changes signedness: &apos;unsigned int&apos; to &apos;int&apos;" />
 <error level="warning" id="warn_impcast_integer_sign" file="H:\Vlad\[Sandbox]\Graphics\Graphics\Fovis\LibFovis\primesense_depth.cpp" line="215" col="34" msg="implicit conversion changes signedness: &apos;int&apos; to &apos;unsigned int&apos;" />
 <error level="warning" id="warn_old_style_cast" file="H:\Vlad\[Sandbox]\Graphics\Graphics\Fovis\LibFovis\primesense_depth.cpp" line="234" col="11" msg="use of old-style cast" />
 <error level="warning" id="warn_old_style_cast" file="H:\Vlad\[Sandbox]\Graphics\Graphics\Fovis\LibFovis\primesense_depth.cpp" line="235" col="11" msg="use of old-style cast" />
 <error level="warning" id="warn_old_style_cast" file="H:\Vlad\[Sandbox]\Graphics\Graphics\Fovis\LibFovis\primesense_depth.cpp" line="265" col="36" msg="use of old-style cast" />
 <error level="warning" id="warn_old_style_cast" file="H:\Vlad\[Sandbox]\Graphics\Graphics\Fovis\LibFovis\primesense_depth.cpp" line="265" col="36" msg="use of old-style cast" />
 <error level="warning" id="warn_old_style_cast" file="H:\Vlad\[Sandbox]\Graphics\Graphics\Fovis\LibFovis\primesense_depth.cpp" line="265" col="41" msg="use of old-style cast" />
 <error level="warning" id="warn_old_style_cast" file="H:\Vlad\[Sandbox]\Graphics\Graphics\Fovis\LibFovis\primesense_depth.cpp" line="265" col="41" msg="use of old-style cast" />
 <error level="warning" id="warn_old_style_cast" file="H:\Vlad\[Sandbox]\Graphics\Graphics\Fovis\LibFovis\primesense_depth.cpp" line="265" col="46" msg="use of old-style cast" />
 <error level="warning" id="warn_old_style_cast" file="H:\Vlad\[Sandbox]\Graphics\Graphics\Fovis\LibFovis\primesense_depth.cpp" line="265" col="46" msg="use of old-style cast" />
 <error level="warning" id="warn_old_style_cast" file="H:\Vlad\[Sandbox]\Graphics\Graphics\Fovis\LibFovis\primesense_depth.cpp" line="265" col="51" msg="use of old-style cast" />
 <error level="warning" id="warn_old_style_cast" file="H:\Vlad\[Sandbox]\Graphics\Graphics\Fovis\LibFovis\primesense_depth.cpp" line="265" col="51" msg="use of old-style cast" />
 <error level="warning" id="warn_old_style_cast" file="H:\Vlad\[Sandbox]\Graphics\Graphics\Fovis\LibFovis\primesense_depth.cpp" line="266" col="35" msg="use of old-style cast" />
 <error level="warning" id="warn_old_style_cast" file="H:\Vlad\[Sandbox]\Graphics\Graphics\Fovis\LibFovis\primesense_depth.cpp" line="266" col="35" msg="use of old-style cast" />
 <error level="warning" id="warn_old_style_cast" file="H:\Vlad\[Sandbox]\Graphics\Graphics\Fovis\LibFovis\primesense_depth.cpp" line="266" col="40" msg="use of old-style cast" />
 <error level="warning" id="warn_old_style_cast" file="H:\Vlad\[Sandbox]\Graphics\Graphics\Fovis\LibFovis\primesense_depth.cpp" line="266" col="40" msg="use of old-style cast" />
 <error level="warning" id="warn_old_style_cast" file="H:\Vlad\[Sandbox]\Graphics\Graphics\Fovis\LibFovis\primesense_depth.cpp" line="266" col="45" msg="use of old-style cast" />
 <error level="warning" id="warn_old_style_cast" file="H:\Vlad\[Sandbox]\Graphics\Graphics\Fovis\LibFovis\primesense_depth.cpp" line="266" col="45" msg="use of old-style cast" />
 <error level="warning" id="warn_old_style_cast" file="H:\Vlad\[Sandbox]\Graphics\Graphics\Fovis\LibFovis\primesense_depth.cpp" line="267" col="25" msg="use of old-style cast" />
 <error level="warning" id="warn_old_style_cast" file="H:\Vlad\[Sandbox]\Graphics\Graphics\Fovis\LibFovis\primesense_depth.cpp" line="267" col="25" msg="use of old-style cast" />
 <error level="warning" id="warn_decl_shadow" file="H:\Vlad\[Sandbox]\Graphics\Graphics\Fovis\LibFovis\primesense_depth.cpp" line="283" col="9" msg="declaration shadows a local variable" />
 <error level="note" id="note_previous_declaration" file="H:\Vlad\[Sandbox]\Graphics\Graphics\Fovis\LibFovis\primesense_depth.cpp" line="234" col="7" msg="previous declaration is here" />
 <error level="warning" id="warn_decl_shadow" file="H:\Vlad\[Sandbox]\Graphics\Graphics\Fovis\LibFovis\primesense_depth.cpp" line="284" col="9" msg="declaration shadows a local variable" />
 <error level="note" id="note_previous_declaration" file="H:\Vlad\[Sandbox]\Graphics\Graphics\Fovis\LibFovis\primesense_depth.cpp" line="235" col="7" msg="previous declaration is here" />
 <error level="warning" id="warn_impcast_integer_sign" file="H:\Vlad\[Sandbox]\Graphics\Graphics\Fovis\LibFovis\primesense_depth.cpp" line="292" col="46" msg="implicit conversion changes signedness: &apos;unsigned int&apos; to &apos;int&apos;" />
 <error level="warning" id="warn_impcast_integer_sign" file="H:\Vlad\[Sandbox]\Graphics\Graphics\Fovis\LibFovis\primesense_depth.cpp" line="292" col="48" msg="implicit conversion changes signedness: &apos;int&apos; to &apos;unsigned int&apos;" />
 <error level="warning" id="warn_impcast_integer_sign" file="H:\Vlad\[Sandbox]\Graphics\Graphics\Fovis\LibFovis\primesense_depth.cpp" line="293" col="46" msg="implicit conversion changes signedness: &apos;unsigned int&apos; to &apos;int&apos;" />
 <error level="warning" id="warn_impcast_integer_sign" file="H:\Vlad\[Sandbox]\Graphics\Graphics\Fovis\LibFovis\primesense_depth.cpp" line="293" col="48" msg="implicit conversion changes signedness: &apos;int&apos; to &apos;unsigned int&apos;" />
 <error level="note" id="note_function_template_spec_here" file="H:\Vlad\[Sandbox]\Graphics\Graphics\Fovis\LibFovis\primesense_depth.cpp" line="53" col="8" msg="in instantiation of function template specialization &apos;std::copy&lt;const unsigned short *, unsigned short *&gt;&apos; requested here" />
 <error level="note" id="note_function_template_spec_here" file="H:\Vlad\[Sandbox]\Graphics\Graphics\Fovis\LibFovis\primesense_depth.cpp" line="56" col="8" msg="in instantiation of function template specialization &apos;std::fill&lt;unsigned int *, int&gt;&apos; requested here" />
</log>