<log>
 <error level="warning" id="warn_doc_tparam_not_found" file="H:\Vlad\[Sandbox]\Graphics\Graphics\eigen\Eigen/src/Core/DenseCoeffsBase.h" line="25" col="13" msg="template parameter &apos;#ReadOnlyAccessors&apos; not found in the template declaration" />
 <error level="warning" id="warn_doc_tparam_not_found" file="H:\Vlad\[Sandbox]\Graphics\Graphics\eigen\Eigen/src/Core/DenseCoeffsBase.h" line="265" col="13" msg="template parameter &apos;#WriteAccessors&apos; not found in the template declaration" />
 <error level="warning" id="warn_doc_tparam_not_found" file="H:\Vlad\[Sandbox]\Graphics\Graphics\eigen\Eigen/src/Core/DenseCoeffsBase.h" line="557" col="13" msg="template parameter &apos;#DirectAccessors&apos; not found in the template declaration" />
 <error level="warning" id="warn_doc_tparam_not_found" file="H:\Vlad\[Sandbox]\Graphics\Graphics\eigen\Eigen/src/Core/DenseCoeffsBase.h" line="627" col="13" msg="template parameter &apos;#DirectWriteAccessors&apos; not found in the template declaration" />
 <error level="warning" id="warn_impcast_integer_sign" file="H:\Vlad\[Sandbox]\Graphics\Graphics\Fovis\LibFovis\grid_filter.cpp" line="23" col="18" msg="implicit conversion changes signedness: &apos;size_type&apos; (aka &apos;unsigned int&apos;) to &apos;int&apos;" />
 <error level="warning" id="warn_impcast_integer_sign" file="H:\Vlad\[Sandbox]\Graphics\Graphics\Fovis\LibFovis\grid_filter.cpp" line="24" col="14" msg="implicit conversion changes signedness: &apos;int&apos; to &apos;size_type&apos; (aka &apos;unsigned int&apos;)" />
 <error level="warning" id="warn_impcast_float_integer" file="H:\Vlad\[Sandbox]\Graphics\Graphics\Fovis\LibFovis\grid_filter.cpp" line="28" col="24" msg="implicit conversion turns floating-point number into integer: &apos;float&apos; to &apos;int&apos;" />
 <error level="warning" id="warn_impcast_float_integer" file="H:\Vlad\[Sandbox]\Graphics\Graphics\Fovis\LibFovis\grid_filter.cpp" line="29" col="24" msg="implicit conversion turns floating-point number into integer: &apos;float&apos; to &apos;int&apos;" />
 <error level="warning" id="warn_impcast_integer_sign" file="H:\Vlad\[Sandbox]\Graphics\Graphics\Fovis\LibFovis\grid_filter.cpp" line="33" col="14" msg="implicit conversion changes signedness: &apos;int&apos; to &apos;size_type&apos; (aka &apos;unsigned int&apos;)" />
 <error level="note" id="note_template_member_function_here" file="H:\Vlad\[Sandbox]\Graphics\Graphics\Fovis\LibFovis\grid_filter.cpp" line="23" col="27" msg="in instantiation of member function &apos;std::vector&lt;std::vector&lt;fovis::KeyPoint, std::allocator&lt;fovis::KeyPoint&gt; &gt;, std::allocator&lt;std::vector&lt;fovis::KeyPoint, std::allocator&lt;fovis::KeyPoint&gt; &gt; &gt; &gt;::size&apos; requested here" />
 <error level="note" id="note_template_member_function_here" file="H:\Vlad\[Sandbox]\Graphics\Graphics\Fovis\LibFovis\grid_filter.cpp" line="26" col="46" msg="in instantiation of member function &apos;std::vector&lt;fovis::KeyPoint, std::allocator&lt;fovis::KeyPoint&gt; &gt;::size&apos; requested here" />
 <error level="note" id="note_template_member_function_here" file="H:\Vlad\[Sandbox]\Graphics\Graphics\Fovis\LibFovis\grid_filter.cpp" line="33" col="28" msg="in instantiation of member function &apos;std::vector&lt;fovis::KeyPoint, std::allocator&lt;fovis::KeyPoint&gt; &gt;::push_back&apos; requested here" />
 <error level="note" id="note_template_member_function_here" file="H:\Vlad\[Sandbox]\Graphics\Graphics\Fovis\LibFovis\grid_filter.cpp" line="33" col="28" msg="in instantiation of member function &apos;std::vector&lt;fovis::KeyPoint, std::allocator&lt;fovis::KeyPoint&gt; &gt;::push_back&apos; requested here" />
 <error level="note" id="note_template_member_function_here" file="H:\Vlad\[Sandbox]\Graphics\Graphics\Fovis\LibFovis\grid_filter.cpp" line="33" col="28" msg="in instantiation of member function &apos;std::vector&lt;fovis::KeyPoint, std::allocator&lt;fovis::KeyPoint&gt; &gt;::push_back&apos; requested here" />
 <error level="note" id="note_template_member_function_here" file="H:\Vlad\[Sandbox]\Graphics\Graphics\Fovis\LibFovis\grid_filter.cpp" line="33" col="28" msg="in instantiation of member function &apos;std::vector&lt;fovis::KeyPoint, std::allocator&lt;fovis::KeyPoint&gt; &gt;::push_back&apos; requested here" />
 <error level="note" id="note_function_template_spec_here" file="H:\Vlad\[Sandbox]\Graphics\Graphics\Fovis\LibFovis\grid_filter.cpp" line="43" col="12" msg="in instantiation of function template specialization &apos;std::nth_element&lt;std::_Vector_iterator&lt;std::_Vector_val&lt;std::_Simple_types&lt;fovis::KeyPoint&gt; &gt; &gt;, bool (*)(const fovis::KeyPoint &amp;, const fovis::KeyPoint &amp;)&gt;&apos; requested here" />
</log>